amqp==5.1.1
arabic-reshaper==3.0.0
asgiref==3.6.0
asn1crypto==1.5.1
autopep8==2.0.1
billiard==3.6.4.0
celery==5.2.7
certifi==2022.12.7
cffi==1.15.1
charset-normalizer==2.1.1
click==8.1.3
click-didyoumean==0.3.0
click-plugins==1.1.1
click-repl==0.2.0
colorama==0.4.6
coreapi==2.3.3
coreschema==0.0.4
cryptography==40.0.1
cssselect2==0.7.0
defusedxml==0.7.1
Django==4.1.4
django-silk==5.0.2
django-solo==1.1.1
djangorestframework==3.14.0
drf-yasg==1.21.4
flower==1.2.0
fonttools==4.39.3
fpdf==1.7.2
fpdf2==2.7.1
gprof2dot==2022.7.29
html5lib==1.1
humanize==4.4.0
idna==3.4
inflection==0.5.1
itypes==1.2.0
Jinja2==3.1.2
kombu==5.2.4
lxml==4.9.2
MarkupSafe==2.1.1
oscrypto==1.3.0
packaging==22.0
pdfkit==1.0.0
Pillow==9.5.0
prometheus-client==0.15.0
prompt-toolkit==3.0.36
pycodestyle==2.10.0
pycparser==2.21
pyHanko==0.17.2
pyhanko-certvalidator==0.20.1
pypdf==3.7.0
pypng==0.20220715.0
python-barcode==0.14.0
python-bidi==0.4.2
python-dateutil==2.8.2
python-dotenv==1.0.0
pytz==2022.7
pytz-deprecation-shim==0.1.0.post0
PyYAML==6.0
psycopg2-binary==2.9.3
qrcode==7.4.2
reportlab==3.6.12
requests==2.28.1
ruamel.yaml==0.17.21
ruamel.yaml.clib==0.2.7
six==1.16.0
sqlparse==0.4.3
svglib==1.5.1
tinycss2==1.2.1
tomli==2.0.1
tornado==6.2
typing_extensions==4.5.0
tzdata==2022.7
tzlocal==4.3
uritemplate==4.1.1
uritools==4.0.1
urllib3==1.26.13
vine==5.0.0
wcwidth==0.2.5
webencodings==0.5.1
